[
  {
    "member_name": "Kang CHEN",
    "mobile": "17000000001",
    "appointment_time": "2015-08-20 09:02:22",
    "location_start": "SDI Plaza",
    "location_end": "Hengda Plaza"
  },
  {
    "member_name": "小乐",
    "mobile": "17000000002",
    "appointment_time": "2015-08-20 09:02:22",
    "location_start": "通州北苑万达广场",
    "location_end": "广渠门东南角"
  }
]